{
  "prepare_queue": {
    "installed": [],
    "uninstalled": []
  },
  "config_munge": {
    "files": {}
  },
  "installed_plugins": {
    "com-badrit-base64": {
      "PACKAGE_NAME": "com.ionicframework.mobile573328"
    },
    "cordova-plugin-actionsheet": {
      "PACKAGE_NAME": "com.ionicframework.mobile573328"
    },
    "cordova-plugin-camera": {
      "PACKAGE_NAME": "com.ionicframework.mobile573328"
    },
    "cordova-plugin-console": {
      "PACKAGE_NAME": "com.ionicframework.mobile573328"
    },
    "cordova-plugin-crop": {
      "PACKAGE_NAME": "com.ionicframework.mobile573328"
    },
    "cordova-plugin-device": {
      "PACKAGE_NAME": "com.ionicframework.mobile573328"
    },
    "cordova-plugin-file": {
      "PACKAGE_NAME": "com.ionicframework.mobile573328"
    },
    "cordova-plugin-file-transfer": {
      "PACKAGE_NAME": "com.ionicframework.mobile573328"
    },
    "cordova-plugin-googleplus": {
      "PACKAGE_NAME": "com.ionicframework.mobile573328"
    },
    "cordova-plugin-nativestorage": {
      "PACKAGE_NAME": "com.ionicframework.mobile573328"
    },
    "cordova-plugin-splashscreen": {
      "PACKAGE_NAME": "com.ionicframework.mobile573328"
    },
    "cordova-plugin-statusbar": {
      "PACKAGE_NAME": "com.ionicframework.mobile573328"
    },
    "cordova-plugin-whitelist": {
      "PACKAGE_NAME": "com.ionicframework.mobile573328"
    },
    "cordova-plugin-x-toast": {
      "PACKAGE_NAME": "com.ionicframework.mobile573328"
    },
    "ionic-plugin-keyboard": {
      "PACKAGE_NAME": "com.ionicframework.mobile573328"
    },
    "cordova-plugin-facebook4": {
      "APP_ID": "391411497886505",
      "APP_NAME": "www.prevenirexpress.com",
      "PACKAGE_NAME": "com.ionicframework.mobile573328"
    }
  },
  "dependent_plugins": {}
}