{
    "prepare_queue": {
        "installed": [],
        "uninstalled": []
    },
    "config_munge": {
        "files": {}
    },
    "installed_plugins": {
        "cordova-plugin-actionsheet": {
            "PACKAGE_NAME": "com.ionicframework.mobile573328"
        },
        "cordova-plugin-camera": {
            "CAMERA_USAGE_DESCRIPTION": " ",
            "PHOTOLIBRARY_USAGE_DESCRIPTION": " ",
            "PACKAGE_NAME": "com.ionicframework.mobile573328"
        },
        "cordova-plugin-console": {
            "PACKAGE_NAME": "com.ionicframework.mobile573328"
        },
        "cordova-plugin-device": {
            "PACKAGE_NAME": "com.ionicframework.mobile573328"
        },
        "cordova-plugin-facebook4": {
            "APP_ID": "391411497886505",
            "APP_NAME": "www.prevenirexpress.com",
            "PACKAGE_NAME": "com.ionicframework.mobile573328"
        },
        "cordova-plugin-file": {
            "PACKAGE_NAME": "com.ionicframework.mobile573328"
        },
        "cordova-plugin-file-transfer": {
            "PACKAGE_NAME": "com.ionicframework.mobile573328"
        },
        "cordova-plugin-splashscreen": {
            "PACKAGE_NAME": "com.ionicframework.mobile573328"
        },
        "cordova-plugin-statusbar": {
            "PACKAGE_NAME": "com.ionicframework.mobile573328"
        },
        "cordova-plugin-whitelist": {
            "PACKAGE_NAME": "com.ionicframework.mobile573328"
        },
        "cordova-plugin-x-toast": {
            "PACKAGE_NAME": "com.ionicframework.mobile573328"
        },
        "ionic-plugin-keyboard": {
            "PACKAGE_NAME": "com.ionicframework.mobile573328"
        },
        "cordova-plugin-googleplus": {
            "REVERSED_CLIENT_ID": "com.googleusercontent.apps.259140863635-qt5hkp10ls3bdt7lvqdjtr894c877hho",
            "PACKAGE_NAME": "com.ionicframework.mobile573328"
        },
        "cordova-plugin-nativestorage": {
            "PACKAGE_NAME": "com.ionicframework.mobile573328"
        },
        "cordova-plugin-crop": {
            "PACKAGE_NAME": "com.ionicframework.mobile573328"
        },
        "com-badrit-base64": {
            "PACKAGE_NAME": "com.ionicframework.mobile573328"
        }
    },
    "dependent_plugins": {
        "cordova-plugin-compat": {
            "PACKAGE_NAME": "com.ionicframework.mobile573328"
        }
    }
}